[
  {
    "label": "Do",
    "desc": "Aenean a fringilla leo. Aliquam."
  },
  {
    "label": "Ullamco",
    "desc": "Suspendisse at mattis nibh. Suspendisse."
  },
  {
    "label": "Qui",
    "desc": "Fusce at laoreet neque. Sed."
  },
  {
    "label": "Officia",
    "desc": "Ut molestie turpis id erat."
  },
  {
    "label": "Enim",
    "desc": "Nulla ullamcorper, risus eget congue."
  }
]